<?xml version="1.0" encoding="iso-8859-1"?>
<!-- Generator: Adobe Illustrator 19.0.0, SVG Export Plug-In . SVG Version: 6.00 Build 0)  -->
<svg version="1.1" id="Capa_1" xmlns="http://www.w3.org/2000/svg" xmlns:xlink="http://www.w3.org/1999/xlink" x="0px" y="0px"
	 viewBox="0 0 448 448" style="enable-background:new 0 0 448 448;" xml:space="preserve">
<g>
	<g>
		<rect x="160" y="104" width="16" height="208"/>
	</g>
</g>
<g>
	<g>
		<rect x="256" y="112" width="120" height="16"/>
	</g>
</g>
<g>
	<g>
		<rect x="208" y="144" width="144" height="16"/>
	</g>
</g>
<g>
	<g>
		<rect x="240" y="224" width="136" height="16"/>
	</g>
</g>
<g>
	<g>
		<rect x="240" y="256" width="136" height="16"/>
	</g>
</g>
<g>
	<g>
		<rect x="240" y="288" width="136" height="16"/>
	</g>
</g>
<g>
	<g>
		<rect x="48" y="232" width="80" height="16"/>
	</g>
</g>
<g>
	<g>
		<rect x="40" y="264" width="96" height="16"/>
	</g>
</g>
<g>
	<g>
		<path d="M440,96h-24V72c0-4.418-3.582-8-8-8H8c-4.418,0-8,3.582-8,8v272c0,4.418,3.582,8,8,8h24v24c0,4.418,3.582,8,8,8h400
			c4.418,0,8-3.582,8-8V104C448,99.582,444.418,96,440,96z M16,336V80h384v256H16z M432,368H48v-16h360c4.418,0,8-3.582,8-8V112h16
			V368z"/>
	</g>
</g>
<g>
	<g>
		<path d="M88,136c-22.091,0-40,17.909-40,40c0.026,22.08,17.92,39.974,40,40c22.091,0,40-17.909,40-40S110.091,136,88,136z M88,200
			c-13.255,0-24-10.745-24-24s10.745-24,24-24s24,10.745,24,24S101.255,200,88,200z"/>
	</g>
</g>
<g>
	<g>
		<rect x="80" y="168" width="16" height="16"/>
	</g>
</g>
<g>
	<g>
		<rect x="224" y="112" width="16" height="16"/>
	</g>
</g>
<g>
</g>
<g>
</g>
<g>
</g>
<g>
</g>
<g>
</g>
<g>
</g>
<g>
</g>
<g>
</g>
<g>
</g>
<g>
</g>
<g>
</g>
<g>
</g>
<g>
</g>
<g>
</g>
<g>
</g>
</svg>
