<?xml version="1.0" encoding="iso-8859-1"?>
<!-- Generator: Adobe Illustrator 19.0.0, SVG Export Plug-In . SVG Version: 6.00 Build 0)  -->
<svg version="1.1" id="Capa_1" xmlns="http://www.w3.org/2000/svg" xmlns:xlink="http://www.w3.org/1999/xlink" x="0px" y="0px"
	 viewBox="0 0 512 512" style="enable-background:new 0 0 512 512;" xml:space="preserve">
<g>
	<g>
		<path d="M467,21.008H309.373c-24.813,0-45,20.187-45,45v187.707H45c-24.813,0-45,20.187-45,45v147.277c0,24.813,20.187,45,45,45
			h336.981c24.143,0,43.9-19.113,44.949-43.002H467c24.813,0,45-20.187,45-45V66.008C512,41.195,491.813,21.008,467,21.008z
			 M61.052,460.992H45c-8.271,0-15-6.729-15-15V298.715c0-8.271,6.729-15,15-15h16.052V460.992z M335.93,460.992H91.052V283.715
			H335.93V460.992z M396.982,445.992c-0.001,8.271-6.73,15-15.001,15H365.93V283.715h16.052c8.271,0,15,6.729,15,15V445.992z
			 M482,402.99c0,8.27-6.729,15-15,15h-40.019v-31.052H482V402.99z M482,356.938h-55.019v-58.223c0-24.813-20.187-45-45-45h-87.608
			V112.06H482V356.938z M482,82.06H294.373V66.008c0-8.271,6.729-15,15-15H467c8.271,0,15,6.729,15,15V82.06z"/>
	</g>
</g>
<g>
	<g>
		<path d="M224.477,53.855L205.143,38.52c-4.508-3.576-10.665-4.257-15.847-1.753c-5.182,2.504-8.474,7.751-8.474,13.506v0.824
			C125.64,56.296,82.314,102.88,82.314,159.4v11.608h-0.335c-5.755,0-11.002,3.292-13.506,8.474
			c-2.504,5.182-1.822,11.339,1.753,15.848l15.336,19.335c2.846,3.587,7.174,5.679,11.752,5.679c4.579,0,8.907-2.091,11.752-5.679
			l15.335-19.335c3.576-4.509,4.257-10.666,1.753-15.847c-2.504-5.181-7.751-8.474-13.506-8.474h-0.335v-7.919v-3.69
			c0-39.014,28.509-71.479,65.785-77.7c0.906-0.151,1.819-0.282,2.736-0.402c0.133,5.614,3.387,10.698,8.461,13.15
			c2.075,1.002,4.305,1.494,6.524,1.494c3.323,0,6.62-1.104,9.323-3.248l19.335-15.335c3.587-2.846,5.679-7.174,5.679-11.752
			C230.156,61.028,228.065,56.7,224.477,53.855z"/>
	</g>
</g>
<g>
</g>
<g>
</g>
<g>
</g>
<g>
</g>
<g>
</g>
<g>
</g>
<g>
</g>
<g>
</g>
<g>
</g>
<g>
</g>
<g>
</g>
<g>
</g>
<g>
</g>
<g>
</g>
<g>
</g>
</svg>
